% $ biblatex auxiliary file $
% $ biblatex bbl format version 2.9 $
% Do not modify the above lines!
%
% This is an auxiliary file used by the 'biblatex' package.
% This file may safely be deleted. It will be recreated by
% biber as required.
%
\begingroup
\makeatletter
\@ifundefined{ver@biblatex.sty}
  {\@latex@error
     {Missing 'biblatex' package}
     {The bibliography requires the 'biblatex' package.}
      \aftergroup\endinput}
  {}
\endgroup


\refsection{0}
  \datalist[entry]{nty/global//global/global}
    \entry{atlas-chib}{article}{}
      \true{moreauthor}
      \true{morelabelname}
      \name{author}{1}{}{%
        {{hash=9ecfda666f0459b6c19c8c962038a023}{%
           family={Aad},
           familyi={A\bibinitperiod},
           given={G.},
           giveni={G\bibinitperiod}}}%
      }
      \list{publisher}{1}{%
        {American Physical Society}%
      }
      \strng{namehash}{ae55f906ac43ce98f52f0b2b76f11197}
      \strng{fullhash}{ae55f906ac43ce98f52f0b2b76f11197}
      \strng{bibnamehash}{ae55f906ac43ce98f52f0b2b76f11197}
      \strng{authorbibnamehash}{ae55f906ac43ce98f52f0b2b76f11197}
      \strng{authornamehash}{ae55f906ac43ce98f52f0b2b76f11197}
      \strng{authorfullhash}{ae55f906ac43ce98f52f0b2b76f11197}
      \field{sortinit}{A}
      \field{sortinithash}{d77c7cdd82ff690d4c3ef13216f92f0b}
      \field{labelnamesource}{author}
      \field{labeltitlesource}{title}
      \field{issue}{15}
      \field{journaltitle}{Phys. Rev. Lett.}
      \field{month}{4}
      \field{title}{Observation of a New ${\ensuremath{\chi}}_b$ State in Radiative Transitions to $\ensuremath{\Upsilon}(1S)$ and $\ensuremath{\Upsilon}(2S)$ at ATLAS}
      \field{volume}{108}
      \field{year}{2012}
      \field{pages}{152001}
      \range{pages}{1}
      \verb{doi}
      \verb 10.1103/PhysRevLett.108.152001
      \endverb
      \verb{urlraw}
      \verb https://link.aps.org/doi/10.1103/PhysRevLett.108.152001
      \endverb
      \verb{url}
      \verb https://link.aps.org/doi/10.1103/PhysRevLett.108.152001
      \endverb
    \endentry
    \entry{lhcb-bs2kmm}{article}{}
      \true{moreauthor}
      \true{morelabelname}
      \name{author}{1}{}{%
        {{hash=6eaaa5ef5815b121fb1c35ea78d343a1}{%
           family={Aaij},
           familyi={A\bibinitperiod},
           given={R.},
           giveni={R\bibinitperiod}}}%
      }
      \strng{namehash}{7e857cdc5a004a585c6886907179a0a1}
      \strng{fullhash}{7e857cdc5a004a585c6886907179a0a1}
      \strng{bibnamehash}{7e857cdc5a004a585c6886907179a0a1}
      \strng{authorbibnamehash}{7e857cdc5a004a585c6886907179a0a1}
      \strng{authornamehash}{7e857cdc5a004a585c6886907179a0a1}
      \strng{authorfullhash}{7e857cdc5a004a585c6886907179a0a1}
      \field{sortinit}{A}
      \field{sortinithash}{d77c7cdd82ff690d4c3ef13216f92f0b}
      \field{labelnamesource}{author}
      \field{labeltitlesource}{title}
      \field{issn}{1029-8479}
      \field{journaltitle}{JHEP}
      \field{month}{9}
      \field{number}{9}
      \field{title}{Angular analysis and differential branching fraction of the decay $B_s^0${\thinspace}{\textrightarrow}{\thinspace}$\varphi\mu$+$\mu$−}
      \field{volume}{2015}
      \field{year}{2015}
      \field{pages}{179}
      \range{pages}{1}
      \verb{doi}
      \verb 10.1007/JHEP09(2015)179
      \endverb
      \verb{urlraw}
      \verb https://doi.org/10.1007/JHEP09(2015)179
      \endverb
      \verb{url}
      \verb https://doi.org/10.1007/JHEP09(2015)179
      \endverb
    \endentry
    \entry{lhcb-b2kmm}{article}{}
      \true{moreauthor}
      \true{morelabelname}
      \name{author}{1}{}{%
        {{hash=6eaaa5ef5815b121fb1c35ea78d343a1}{%
           family={Aaij},
           familyi={A\bibinitperiod},
           given={R.},
           giveni={R\bibinitperiod}}}%
      }
      \strng{namehash}{7e857cdc5a004a585c6886907179a0a1}
      \strng{fullhash}{7e857cdc5a004a585c6886907179a0a1}
      \strng{bibnamehash}{7e857cdc5a004a585c6886907179a0a1}
      \strng{authorbibnamehash}{7e857cdc5a004a585c6886907179a0a1}
      \strng{authornamehash}{7e857cdc5a004a585c6886907179a0a1}
      \strng{authorfullhash}{7e857cdc5a004a585c6886907179a0a1}
      \field{sortinit}{A}
      \field{sortinithash}{d77c7cdd82ff690d4c3ef13216f92f0b}
      \field{labelnamesource}{author}
      \field{labeltitlesource}{title}
      \field{issn}{1029-8479}
      \field{journaltitle}{JHEP}
      \field{month}{2}
      \field{number}{2}
      \field{title}{Angular analysis of the $B^0$ {\textrightarrow} $K^{*0}\mu$+$\mu$− decay using 3 fb$^{-1}$ of integrated luminosity}
      \field{volume}{2016}
      \field{year}{2016}
      \field{pages}{104}
      \range{pages}{1}
      \verb{doi}
      \verb 10.1007/JHEP02(2016)104
      \endverb
      \verb{urlraw}
      \verb https://doi.org/10.1007/JHEP02(2016)104
      \endverb
      \verb{url}
      \verb https://doi.org/10.1007/JHEP02(2016)104
      \endverb
    \endentry
    \entry{lhcb-bs}{article}{}
      \true{moreauthor}
      \true{morelabelname}
      \name{author}{1}{}{%
        {{hash=6eaaa5ef5815b121fb1c35ea78d343a1}{%
           family={Aaij},
           familyi={A\bibinitperiod},
           given={R.},
           giveni={R\bibinitperiod}}}%
      }
      \list{publisher}{1}{%
        {American Physical Society}%
      }
      \strng{namehash}{7e857cdc5a004a585c6886907179a0a1}
      \strng{fullhash}{7e857cdc5a004a585c6886907179a0a1}
      \strng{bibnamehash}{7e857cdc5a004a585c6886907179a0a1}
      \strng{authorbibnamehash}{7e857cdc5a004a585c6886907179a0a1}
      \strng{authornamehash}{7e857cdc5a004a585c6886907179a0a1}
      \strng{authorfullhash}{7e857cdc5a004a585c6886907179a0a1}
      \field{sortinit}{A}
      \field{sortinithash}{d77c7cdd82ff690d4c3ef13216f92f0b}
      \field{labelnamesource}{author}
      \field{labeltitlesource}{title}
      \field{issue}{15}
      \field{journaltitle}{Phys. Rev. Lett.}
      \field{month}{4}
      \field{title}{First Observation of the Decay $B_{s2}^{*}\mathbf{(}5840{\mathbf{)}}^{0}\ensuremath{\rightarrow}{B}^{*\mathbf{+}}K^{\mathbf{\ensuremath{-}}}$ and Studies of Excited $B_s^{0}$ Mesons}
      \field{volume}{110}
      \field{year}{2013}
      \field{pages}{151803}
      \range{pages}{1}
      \verb{doi}
      \verb 10.1103/PhysRevLett.110.151803
      \endverb
      \verb{urlraw}
      \verb https://link.aps.org/doi/10.1103/PhysRevLett.110.151803
      \endverb
      \verb{url}
      \verb https://link.aps.org/doi/10.1103/PhysRevLett.110.151803
      \endverb
    \endentry
    \entry{lhcb-bs2mm-new}{article}{}
      \true{moreauthor}
      \true{morelabelname}
      \name{author}{1}{}{%
        {{hash=6eaaa5ef5815b121fb1c35ea78d343a1}{%
           family={Aaij},
           familyi={A\bibinitperiod},
           given={R.},
           giveni={R\bibinitperiod}}}%
      }
      \list{publisher}{1}{%
        {American Physical Society}%
      }
      \strng{namehash}{7e857cdc5a004a585c6886907179a0a1}
      \strng{fullhash}{7e857cdc5a004a585c6886907179a0a1}
      \strng{bibnamehash}{7e857cdc5a004a585c6886907179a0a1}
      \strng{authorbibnamehash}{7e857cdc5a004a585c6886907179a0a1}
      \strng{authornamehash}{7e857cdc5a004a585c6886907179a0a1}
      \strng{authorfullhash}{7e857cdc5a004a585c6886907179a0a1}
      \field{sortinit}{A}
      \field{sortinithash}{d77c7cdd82ff690d4c3ef13216f92f0b}
      \field{labelnamesource}{author}
      \field{labeltitlesource}{title}
      \field{issue}{19}
      \field{journaltitle}{Phys. Rev. Lett.}
      \field{month}{5}
      \field{title}{Measurement of the $B_s^{0}\ensuremath{\rightarrow}{\ensuremath{\mu}}^{+}{\ensuremath{\mu}}^{\ensuremath{-}}$ Branching Fraction and Effective Lifetime and Search for $B^{0}\ensuremath{\rightarrow}{\ensuremath{\mu}}^{+}{\ensuremath{\mu}}^{\ensuremath{-}}$ Decays}
      \field{volume}{118}
      \field{year}{2017}
      \field{pages}{191801}
      \range{pages}{1}
      \verb{doi}
      \verb 10.1103/PhysRevLett.118.191801
      \endverb
      \verb{urlraw}
      \verb https://link.aps.org/doi/10.1103/PhysRevLett.118.191801
      \endverb
      \verb{url}
      \verb https://link.aps.org/doi/10.1103/PhysRevLett.118.191801
      \endverb
    \endentry
    \entry{lhcb-b2dlnu}{article}{}
      \true{moreauthor}
      \true{morelabelname}
      \name{author}{1}{}{%
        {{hash=6eaaa5ef5815b121fb1c35ea78d343a1}{%
           family={Aaij},
           familyi={A\bibinitperiod},
           given={R.},
           giveni={R\bibinitperiod}}}%
      }
      \list{publisher}{1}{%
        {American Physical Society}%
      }
      \strng{namehash}{7e857cdc5a004a585c6886907179a0a1}
      \strng{fullhash}{7e857cdc5a004a585c6886907179a0a1}
      \strng{bibnamehash}{7e857cdc5a004a585c6886907179a0a1}
      \strng{authorbibnamehash}{7e857cdc5a004a585c6886907179a0a1}
      \strng{authornamehash}{7e857cdc5a004a585c6886907179a0a1}
      \strng{authorfullhash}{7e857cdc5a004a585c6886907179a0a1}
      \field{sortinit}{A}
      \field{sortinithash}{d77c7cdd82ff690d4c3ef13216f92f0b}
      \field{labelnamesource}{author}
      \field{labeltitlesource}{title}
      \field{issue}{11}
      \field{journaltitle}{Phys. Rev. Lett.}
      \field{month}{9}
      \field{title}{Measurement of the Ratio of Branching Fractions $\mathcal{B}({\overline{B}}^{0}\ensuremath{\rightarrow}{D}^{*+}{\ensuremath{\tau}}^{\ensuremath{-}}{\overline{\ensuremath{\nu}}}_{\ensuremath{\tau}})/\mathcal{B}({\overline{B}}^{0}\ensuremath{\rightarrow}{D}^{*+}{\ensuremath{\mu}}^{\ensuremath{-}}{\overline{\ensuremath{\nu}}}_{\ensuremath{\mu}})$}
      \field{volume}{115}
      \field{year}{2015}
      \field{pages}{111803}
      \range{pages}{1}
      \verb{doi}
      \verb 10.1103/PhysRevLett.115.111803
      \endverb
      \verb{urlraw}
      \verb https://link.aps.org/doi/10.1103/PhysRevLett.115.111803
      \endverb
      \verb{url}
      \verb https://link.aps.org/doi/10.1103/PhysRevLett.115.111803
      \endverb
    \endentry
    \entry{lhcb-chib}{article}{}
      \true{moreauthor}
      \true{morelabelname}
      \name{author}{1}{}{%
        {{hash=6eaaa5ef5815b121fb1c35ea78d343a1}{%
           family={Aaij},
           familyi={A\bibinitperiod},
           given={R.},
           giveni={R\bibinitperiod}}}%
      }
      \strng{namehash}{7e857cdc5a004a585c6886907179a0a1}
      \strng{fullhash}{7e857cdc5a004a585c6886907179a0a1}
      \strng{bibnamehash}{7e857cdc5a004a585c6886907179a0a1}
      \strng{authorbibnamehash}{7e857cdc5a004a585c6886907179a0a1}
      \strng{authornamehash}{7e857cdc5a004a585c6886907179a0a1}
      \strng{authorfullhash}{7e857cdc5a004a585c6886907179a0a1}
      \field{sortinit}{A}
      \field{sortinithash}{d77c7cdd82ff690d4c3ef13216f92f0b}
      \field{labelnamesource}{author}
      \field{labeltitlesource}{title}
      \field{issn}{1434-6052}
      \field{journaltitle}{Eur. Phys. Jour. C}
      \field{month}{10}
      \field{number}{10}
      \field{title}{Study of $\chi_b$ meson in pp collisions at $\sqrt{s}=$7 TeV and 8 TeV and observation of the decay $\chi_b(3P)\rightarrow\Upsilon(3S)\gamma$}
      \field{volume}{74}
      \field{year}{2014}
      \field{pages}{3092}
      \range{pages}{1}
      \verb{doi}
      \verb 10.1140/epjc/s10052-014-3092-z
      \endverb
      \verb{urlraw}
      \verb https://doi.org/10.1140/epjc/s10052-014-3092-z
      \endverb
      \verb{url}
      \verb https://doi.org/10.1140/epjc/s10052-014-3092-z
      \endverb
    \endentry
    \entry{cdf-bs}{article}{}
      \true{moreauthor}
      \true{morelabelname}
      \name{author}{1}{}{%
        {{hash=ea3d51ae0110d504279bcedc1b90ecab}{%
           family={Aaltonen},
           familyi={A\bibinitperiod},
           given={T.},
           giveni={T\bibinitperiod}}}%
      }
      \list{publisher}{1}{%
        {American Physical Society}%
      }
      \strng{namehash}{9b88dbf290014580948b8b0f7ccba681}
      \strng{fullhash}{9b88dbf290014580948b8b0f7ccba681}
      \strng{bibnamehash}{9b88dbf290014580948b8b0f7ccba681}
      \strng{authorbibnamehash}{9b88dbf290014580948b8b0f7ccba681}
      \strng{authornamehash}{9b88dbf290014580948b8b0f7ccba681}
      \strng{authorfullhash}{9b88dbf290014580948b8b0f7ccba681}
      \field{sortinit}{A}
      \field{sortinithash}{d77c7cdd82ff690d4c3ef13216f92f0b}
      \field{labelnamesource}{author}
      \field{labeltitlesource}{title}
      \field{issue}{8}
      \field{journaltitle}{Phys. Rev. Lett.}
      \field{month}{2}
      \field{title}{Observation of Orbitally Excited $B_s$ Mesons}
      \field{volume}{100}
      \field{year}{2008}
      \field{pages}{082001}
      \range{pages}{1}
      \verb{doi}
      \verb 10.1103/PhysRevLett.100.082001
      \endverb
      \verb{urlraw}
      \verb https://link.aps.org/doi/10.1103/PhysRevLett.100.082001
      \endverb
      \verb{url}
      \verb https://link.aps.org/doi/10.1103/PhysRevLett.100.082001
      \endverb
    \endentry
    \entry{belle-tdr}{article}{}
      \true{moreauthor}
      \true{morelabelname}
      \name{author}{1}{}{%
        {{hash=c8488a162a5254188ac91c24c7f6ef92}{%
           family={Abashian},
           familyi={A\bibinitperiod},
           given={A.},
           giveni={A\bibinitperiod}}}%
      }
      \strng{namehash}{e809dbffd8254b01be071ac7d4f9736c}
      \strng{fullhash}{e809dbffd8254b01be071ac7d4f9736c}
      \strng{bibnamehash}{e809dbffd8254b01be071ac7d4f9736c}
      \strng{authorbibnamehash}{e809dbffd8254b01be071ac7d4f9736c}
      \strng{authornamehash}{e809dbffd8254b01be071ac7d4f9736c}
      \strng{authorfullhash}{e809dbffd8254b01be071ac7d4f9736c}
      \field{sortinit}{A}
      \field{sortinithash}{d77c7cdd82ff690d4c3ef13216f92f0b}
      \field{labelnamesource}{author}
      \field{labeltitlesource}{title}
      \field{issn}{0168-9002}
      \field{journaltitle}{{Nucl. Instrum. Meth. A.}}
      \field{note}{Detectors for Asymmetric B-factories}
      \field{number}{1}
      \field{title}{The Belle detector}
      \field{volume}{479}
      \field{year}{2002}
      \field{pages}{117\bibrangedash 232}
      \range{pages}{116}
      \verb{doi}
      \verb https://doi.org/10.1016/S0168-9002(01)02013-7
      \endverb
      \verb{urlraw}
      \verb http://www.sciencedirect.com/science/article/pii/S0168900201020137
      \endverb
      \verb{url}
      \verb http://www.sciencedirect.com/science/article/pii/S0168900201020137
      \endverb
    \endentry
    \entry{d0-x5568}{article}{}
      \true{moreauthor}
      \true{morelabelname}
      \name{author}{1}{}{%
        {{hash=ef912109014ae1fb9956be175e7d4862}{%
           family={Abazov},
           familyi={A\bibinitperiod},
           given={V.\bibnamedelimi M.},
           giveni={V\bibinitperiod\bibinitdelim M\bibinitperiod}}}%
      }
      \list{publisher}{1}{%
        {American Physical Society}%
      }
      \strng{namehash}{ae7ed09fb33b9541f86e4cc3c976ccbb}
      \strng{fullhash}{ae7ed09fb33b9541f86e4cc3c976ccbb}
      \strng{bibnamehash}{ae7ed09fb33b9541f86e4cc3c976ccbb}
      \strng{authorbibnamehash}{ae7ed09fb33b9541f86e4cc3c976ccbb}
      \strng{authornamehash}{ae7ed09fb33b9541f86e4cc3c976ccbb}
      \strng{authorfullhash}{ae7ed09fb33b9541f86e4cc3c976ccbb}
      \field{sortinit}{A}
      \field{sortinithash}{d77c7cdd82ff690d4c3ef13216f92f0b}
      \field{labelnamesource}{author}
      \field{labeltitlesource}{title}
      \field{issue}{2}
      \field{journaltitle}{Phys. Rev. Lett.}
      \field{month}{7}
      \field{title}{Evidence for a $B_s^{0}{\ensuremath{\pi}}^{\ifmmode\pm\else\textpm\fi{}}$ State}
      \field{volume}{117}
      \field{year}{2016}
      \field{pages}{022003}
      \range{pages}{1}
      \verb{doi}
      \verb 10.1103/PhysRevLett.117.022003
      \endverb
      \verb{urlraw}
      \verb https://link.aps.org/doi/10.1103/PhysRevLett.117.022003
      \endverb
      \verb{url}
      \verb https://link.aps.org/doi/10.1103/PhysRevLett.117.022003
      \endverb
    \endentry
    \entry{d0-bs}{article}{}
      \true{moreauthor}
      \true{morelabelname}
      \name{author}{1}{}{%
        {{hash=ef912109014ae1fb9956be175e7d4862}{%
           family={Abazov},
           familyi={A\bibinitperiod},
           given={V.\bibnamedelimi M.},
           giveni={V\bibinitperiod\bibinitdelim M\bibinitperiod}}}%
      }
      \list{publisher}{1}{%
        {American Physical Society}%
      }
      \strng{namehash}{ae7ed09fb33b9541f86e4cc3c976ccbb}
      \strng{fullhash}{ae7ed09fb33b9541f86e4cc3c976ccbb}
      \strng{bibnamehash}{ae7ed09fb33b9541f86e4cc3c976ccbb}
      \strng{authorbibnamehash}{ae7ed09fb33b9541f86e4cc3c976ccbb}
      \strng{authornamehash}{ae7ed09fb33b9541f86e4cc3c976ccbb}
      \strng{authorfullhash}{ae7ed09fb33b9541f86e4cc3c976ccbb}
      \field{sortinit}{A}
      \field{sortinithash}{d77c7cdd82ff690d4c3ef13216f92f0b}
      \field{labelnamesource}{author}
      \field{labeltitlesource}{title}
      \field{issue}{8}
      \field{journaltitle}{Phys. Rev. Lett.}
      \field{month}{2}
      \field{title}{Observation and Properties of the Orbitally Excited $B_{s2}^{*}$ Meson}
      \field{volume}{100}
      \field{year}{2008}
      \field{pages}{082002}
      \range{pages}{1}
      \verb{doi}
      \verb 10.1103/PhysRevLett.100.082002
      \endverb
      \verb{urlraw}
      \verb https://link.aps.org/doi/10.1103/PhysRevLett.100.082002
      \endverb
      \verb{url}
      \verb https://link.aps.org/doi/10.1103/PhysRevLett.100.082002
      \endverb
    \endentry
    \entry{d0-chib}{article}{}
      \true{moreauthor}
      \true{morelabelname}
      \name{author}{1}{}{%
        {{hash=ef912109014ae1fb9956be175e7d4862}{%
           family={Abazov},
           familyi={A\bibinitperiod},
           given={V.\bibnamedelimi M.},
           giveni={V\bibinitperiod\bibinitdelim M\bibinitperiod}}}%
      }
      \list{publisher}{1}{%
        {American Physical Society}%
      }
      \strng{namehash}{ae7ed09fb33b9541f86e4cc3c976ccbb}
      \strng{fullhash}{ae7ed09fb33b9541f86e4cc3c976ccbb}
      \strng{bibnamehash}{ae7ed09fb33b9541f86e4cc3c976ccbb}
      \strng{authorbibnamehash}{ae7ed09fb33b9541f86e4cc3c976ccbb}
      \strng{authornamehash}{ae7ed09fb33b9541f86e4cc3c976ccbb}
      \strng{authorfullhash}{ae7ed09fb33b9541f86e4cc3c976ccbb}
      \field{sortinit}{A}
      \field{sortinithash}{d77c7cdd82ff690d4c3ef13216f92f0b}
      \field{labelnamesource}{author}
      \field{labeltitlesource}{title}
      \field{issue}{3}
      \field{journaltitle}{Phys. Rev. D}
      \field{month}{8}
      \field{title}{Observation of a narrow mass state decaying into $\ensuremath{\Upsilon}(1S)+\ensuremath{\gamma}$ in $p\overline{p}$ collisions at $\sqrt{s}$=1.96 TeV}
      \field{volume}{86}
      \field{year}{2012}
      \field{pages}{031103}
      \range{pages}{1}
      \verb{doi}
      \verb 10.1103/PhysRevD.86.031103
      \endverb
      \verb{urlraw}
      \verb https://link.aps.org/doi/10.1103/PhysRevD.86.031103
      \endverb
      \verb{url}
      \verb https://link.aps.org/doi/10.1103/PhysRevD.86.031103
      \endverb
    \endentry
    \entry{belle-b2kmm}{inproceedings}{}
      \true{moreauthor}
      \true{morelabelname}
      \name{author}{1}{}{%
        {{hash=644ce07dfcf2a1ab3d8281359719b268}{%
           family={Abdesselam},
           familyi={A\bibinitperiod},
           given={A.},
           giveni={A\bibinitperiod}}}%
      }
      \strng{namehash}{3e0d57aedb42c7023f335b768328b847}
      \strng{fullhash}{3e0d57aedb42c7023f335b768328b847}
      \strng{bibnamehash}{3e0d57aedb42c7023f335b768328b847}
      \strng{authorbibnamehash}{3e0d57aedb42c7023f335b768328b847}
      \strng{authornamehash}{3e0d57aedb42c7023f335b768328b847}
      \strng{authorfullhash}{3e0d57aedb42c7023f335b768328b847}
      \field{sortinit}{A}
      \field{sortinithash}{d77c7cdd82ff690d4c3ef13216f92f0b}
      \field{labelnamesource}{author}
      \field{labeltitlesource}{title}
      \field{booktitle}{LHCSki 2016 - A First Discussion of 13 TeV Results}
      \field{title}{Angular analysis of the $B^0$ {\textrightarrow} $K^{*}(892)^0\mu$+$\mu$−}
      \field{year}{2016}
    \endentry
    \entry{belle2-tdr}{report}{}
      \true{moreauthor}
      \true{morelabelname}
      \name{author}{1}{}{%
        {{hash=a91c0229494430f3c1e6bb282a7d206c}{%
           family={Abe},
           familyi={A\bibinitperiod},
           given={T.},
           giveni={T\bibinitperiod}}}%
      }
      \list{institution}{1}{%
        {KEK}%
      }
      \strng{namehash}{d48cbf7f3b0367f9612aaaa1fa4200f4}
      \strng{fullhash}{d48cbf7f3b0367f9612aaaa1fa4200f4}
      \strng{bibnamehash}{d48cbf7f3b0367f9612aaaa1fa4200f4}
      \strng{authorbibnamehash}{d48cbf7f3b0367f9612aaaa1fa4200f4}
      \strng{authornamehash}{d48cbf7f3b0367f9612aaaa1fa4200f4}
      \strng{authorfullhash}{d48cbf7f3b0367f9612aaaa1fa4200f4}
      \field{sortinit}{A}
      \field{sortinithash}{d77c7cdd82ff690d4c3ef13216f92f0b}
      \field{labelnamesource}{author}
      \field{labeltitlesource}{title}
      \field{number}{2010-1}
      \field{title}{{Belle II Technical Design Report}}
      \field{type}{techreport}
      \field{year}{2010}
      \verb{urlraw}
      \verb https://arxiv.org/abs/1011.0352
      \endverb
      \verb{url}
      \verb https://arxiv.org/abs/1011.0352
      \endverb
    \endentry
    \entry{x-theor}{article}{}
      \name{author}{2}{}{%
        {{hash=afc9b96a345cdc205050d8e4a9f152bd}{%
           family={Artoisenet},
           familyi={A\bibinitperiod},
           given={P.},
           giveni={P\bibinitperiod}}}%
        {{hash=72d9575f72be5d5958e965f2728dde55}{%
           family={Braaten},
           familyi={B\bibinitperiod},
           given={E.},
           giveni={E\bibinitperiod}}}%
      }
      \list{publisher}{1}{%
        {American Physical Society}%
      }
      \strng{namehash}{cac4492758110a93e2d54ced8b341bad}
      \strng{fullhash}{cac4492758110a93e2d54ced8b341bad}
      \strng{bibnamehash}{cac4492758110a93e2d54ced8b341bad}
      \strng{authorbibnamehash}{cac4492758110a93e2d54ced8b341bad}
      \strng{authornamehash}{cac4492758110a93e2d54ced8b341bad}
      \strng{authorfullhash}{cac4492758110a93e2d54ced8b341bad}
      \field{sortinit}{A}
      \field{sortinithash}{d77c7cdd82ff690d4c3ef13216f92f0b}
      \field{labelnamesource}{author}
      \field{labeltitlesource}{title}
      \field{issue}{11}
      \field{journaltitle}{Phys. Rev. D}
      \field{month}{6}
      \field{title}{Production of the $X(3872)$ at the Tevatron and the LHC}
      \field{volume}{81}
      \field{year}{2010}
      \field{pages}{114018}
      \range{pages}{1}
      \verb{doi}
      \verb 10.1103/PhysRevD.81.114018
      \endverb
      \verb{urlraw}
      \verb https://link.aps.org/doi/10.1103/PhysRevD.81.114018
      \endverb
      \verb{url}
      \verb https://link.aps.org/doi/10.1103/PhysRevD.81.114018
      \endverb
    \endentry
    \entry{babar-tdr}{article}{}
      \true{moreauthor}
      \true{morelabelname}
      \name{author}{1}{}{%
        {{hash=6e899dc05fb328012c7d562520f08d02}{%
           family={Aubert},
           familyi={A\bibinitperiod},
           given={B.},
           giveni={B\bibinitperiod}}}%
      }
      \strng{namehash}{fddb8912be58d65c7b3b84f8efda9d05}
      \strng{fullhash}{fddb8912be58d65c7b3b84f8efda9d05}
      \strng{bibnamehash}{fddb8912be58d65c7b3b84f8efda9d05}
      \strng{authorbibnamehash}{fddb8912be58d65c7b3b84f8efda9d05}
      \strng{authornamehash}{fddb8912be58d65c7b3b84f8efda9d05}
      \strng{authorfullhash}{fddb8912be58d65c7b3b84f8efda9d05}
      \field{sortinit}{A}
      \field{sortinithash}{d77c7cdd82ff690d4c3ef13216f92f0b}
      \field{labelnamesource}{author}
      \field{labeltitlesource}{title}
      \field{issn}{0168-9002}
      \field{journaltitle}{{Nucl. Instrum. Meth. A.}}
      \field{note}{Detectors for Asymmetric B-factories}
      \field{number}{1}
      \field{title}{The {BABAR} detector}
      \field{volume}{479}
      \field{year}{2002}
      \field{pages}{1\bibrangedash 116}
      \range{pages}{116}
      \verb{doi}
      \verb https://doi.org/10.1016/S0168-9002(01)02012-5
      \endverb
      \verb{urlraw}
      \verb http://www.sciencedirect.com/science/article/pii/S0168900201020125
      \endverb
      \verb{url}
      \verb http://www.sciencedirect.com/science/article/pii/S0168900201020125
      \endverb
    \endentry
    \entry{lhcb-tdr}{article}{}
      \true{moreauthor}
      \true{morelabelname}
      \name{author}{1}{}{%
        {{hash=01d5acca232168de1eb5fef7b4093c61}{%
           family={Augusto\bibnamedelima Alves},
           familyi={A\bibinitperiod\bibinitdelim A\bibinitperiod},
           given={A.},
           giveni={A\bibinitperiod}}}%
      }
      \list{publisher}{1}{%
        {{IOP} Publishing}%
      }
      \strng{namehash}{abd9220d1cb43a994660d716d640a029}
      \strng{fullhash}{abd9220d1cb43a994660d716d640a029}
      \strng{bibnamehash}{abd9220d1cb43a994660d716d640a029}
      \strng{authorbibnamehash}{abd9220d1cb43a994660d716d640a029}
      \strng{authornamehash}{abd9220d1cb43a994660d716d640a029}
      \strng{authorfullhash}{abd9220d1cb43a994660d716d640a029}
      \field{sortinit}{A}
      \field{sortinithash}{d77c7cdd82ff690d4c3ef13216f92f0b}
      \field{labelnamesource}{author}
      \field{labeltitlesource}{title}
      \field{journaltitle}{Journal of Instrumentation}
      \field{month}{8}
      \field{number}{08}
      \field{title}{The {LHCb} Detector at the {LHC}}
      \field{volume}{3}
      \field{year}{2008}
      \field{pages}{S08005\bibrangedash S08005}
      \range{pages}{-1}
      \verb{doi}
      \verb 10.1088/1748-0221/3/08/s08005
      \endverb
      \verb{urlraw}
      \verb https://doi.org/10.1088%2F1748-0221%2F3%2F08%2Fs08005
      \endverb
      \verb{url}
      \verb https://doi.org/10.1088%2F1748-0221%2F3%2F08%2Fs08005
      \endverb
    \endentry
    \entry{th-bs2mm}{article}{}
      \true{moreauthor}
      \true{morelabelname}
      \name{author}{1}{}{%
        {{hash=5aeb15eb9efb2d2192c86f900657bb6c}{%
           family={Bobeth},
           familyi={B\bibinitperiod},
           given={C.},
           giveni={C\bibinitperiod}}}%
      }
      \list{publisher}{1}{%
        {American Physical Society}%
      }
      \strng{namehash}{6b3d6b8cf3efc6f51f6b667a8be2ed77}
      \strng{fullhash}{6b3d6b8cf3efc6f51f6b667a8be2ed77}
      \strng{bibnamehash}{6b3d6b8cf3efc6f51f6b667a8be2ed77}
      \strng{authorbibnamehash}{6b3d6b8cf3efc6f51f6b667a8be2ed77}
      \strng{authornamehash}{6b3d6b8cf3efc6f51f6b667a8be2ed77}
      \strng{authorfullhash}{6b3d6b8cf3efc6f51f6b667a8be2ed77}
      \field{sortinit}{B}
      \field{sortinithash}{276475738cc058478c1677046f857703}
      \field{labelnamesource}{author}
      \field{labeltitlesource}{title}
      \field{issue}{10}
      \field{journaltitle}{Phys. Rev. Lett.}
      \field{month}{3}
      \field{title}{$B_{s,d}\ensuremath{\rightarrow}{l}^{+}l^{\ensuremath{-}}$ in the Standard Model with Reduced Theoretical Uncertainty}
      \field{volume}{112}
      \field{year}{2014}
      \field{pages}{101801}
      \range{pages}{1}
      \verb{doi}
      \verb 10.1103/PhysRevLett.112.101801
      \endverb
      \verb{urlraw}
      \verb https://link.aps.org/doi/10.1103/PhysRevLett.112.101801
      \endverb
      \verb{url}
      \verb https://link.aps.org/doi/10.1103/PhysRevLett.112.101801
      \endverb
    \endentry
    \entry{cms-x}{article}{}
      \true{moreauthor}
      \true{morelabelname}
      \name{author}{1}{}{%
        {{hash=d4b281ede3a5e6bb867cf7307256ebb3}{%
           family={Chatrchyan},
           familyi={C\bibinitperiod},
           given={S.},
           giveni={S\bibinitperiod}}}%
      }
      \strng{namehash}{0a71497434f162556922a9b814ad8ca8}
      \strng{fullhash}{0a71497434f162556922a9b814ad8ca8}
      \strng{bibnamehash}{0a71497434f162556922a9b814ad8ca8}
      \strng{authorbibnamehash}{0a71497434f162556922a9b814ad8ca8}
      \strng{authornamehash}{0a71497434f162556922a9b814ad8ca8}
      \strng{authorfullhash}{0a71497434f162556922a9b814ad8ca8}
      \field{sortinit}{C}
      \field{sortinithash}{963e9d84a3da2344e8833203de5aed05}
      \field{labelnamesource}{author}
      \field{labeltitlesource}{title}
      \field{issn}{1029-8479}
      \field{journaltitle}{JHEP}
      \field{month}{4}
      \field{number}{4}
      \field{title}{Measurement of the X(3872) production cross section via decays to J/$\psi$$\pi$+$\pi$− in pp collisions at $\sqrt{s}=8$ TeV}
      \field{volume}{2013}
      \field{year}{2013}
      \field{pages}{154}
      \range{pages}{1}
      \verb{doi}
      \verb 10.1007/JHEP04(2013)154
      \endverb
      \verb{urlraw}
      \verb https://doi.org/10.1007/JHEP04(2013)154
      \endverb
      \verb{url}
      \verb https://doi.org/10.1007/JHEP04(2013)154
      \endverb
    \endentry
    \entry{cms-tdr}{article}{}
      \true{moreauthor}
      \true{morelabelname}
      \name{author}{1}{}{%
        {{hash=d4b281ede3a5e6bb867cf7307256ebb3}{%
           family={Chatrchyan},
           familyi={C\bibinitperiod},
           given={S.},
           giveni={S\bibinitperiod}}}%
      }
      \list{publisher}{1}{%
        {{IOP} Publishing}%
      }
      \strng{namehash}{0a71497434f162556922a9b814ad8ca8}
      \strng{fullhash}{0a71497434f162556922a9b814ad8ca8}
      \strng{bibnamehash}{0a71497434f162556922a9b814ad8ca8}
      \strng{authorbibnamehash}{0a71497434f162556922a9b814ad8ca8}
      \strng{authornamehash}{0a71497434f162556922a9b814ad8ca8}
      \strng{authorfullhash}{0a71497434f162556922a9b814ad8ca8}
      \field{sortinit}{C}
      \field{sortinithash}{963e9d84a3da2344e8833203de5aed05}
      \field{labelnamesource}{author}
      \field{labeltitlesource}{title}
      \field{journaltitle}{Journal of Instrumentation}
      \field{month}{8}
      \field{number}{08}
      \field{title}{The {CMS} experiment at the {CERN} {LHC}}
      \field{volume}{3}
      \field{year}{2008}
      \field{pages}{S08004\bibrangedash S08004}
      \range{pages}{-1}
      \verb{doi}
      \verb 10.1088/1748-0221/3/08/s08004
      \endverb
      \verb{urlraw}
      \verb https://doi.org/10.1088%2F1748-0221%2F3%2F08%2Fs08004
      \endverb
      \verb{url}
      \verb https://doi.org/10.1088%2F1748-0221%2F3%2F08%2Fs08004
      \endverb
    \endentry
    \entry{bs2mm}{article}{}
      \true{moreauthor}
      \true{morelabelname}
      \name{author}{1}{}{%
        {{hash=7f05663ab2f9a5926b2ba4b7e59c0461}{%
           family={Khachatryan},
           familyi={K\bibinitperiod},
           given={V.},
           giveni={V\bibinitperiod}}}%
      }
      \strng{namehash}{1f6052da904b0a369b7e830cf75c0681}
      \strng{fullhash}{1f6052da904b0a369b7e830cf75c0681}
      \strng{bibnamehash}{1f6052da904b0a369b7e830cf75c0681}
      \strng{authorbibnamehash}{1f6052da904b0a369b7e830cf75c0681}
      \strng{authornamehash}{1f6052da904b0a369b7e830cf75c0681}
      \strng{authorfullhash}{1f6052da904b0a369b7e830cf75c0681}
      \field{sortinit}{K}
      \field{sortinithash}{9fd838a31ba64d981e8f44562bd33f89}
      \field{labelnamesource}{author}
      \field{labeltitlesource}{title}
      \field{journaltitle}{Nature}
      \field{title}{Observation of the rare $B_s^{0}\ensuremath{\rightarrow}{\ensuremath{\mu}}^{+}{\ensuremath{\mu}}^{\ensuremath{-}}$ decay from the combined analysis of {CMS} and {LHCb} data}
      \field{volume}{522}
      \field{year}{2015}
      \field{pages}{68}
      \range{pages}{1}
      \verb{doi}
      \verb 10.1038/nature14474
      \endverb
      \verb{urlraw}
      \verb https://www.nature.com/nature/journal/v522/n7554/full/nature14474.html
      \endverb
      \verb{url}
      \verb https://www.nature.com/nature/journal/v522/n7554/full/nature14474.html
      \endverb
    \endentry
    \entry{cms-b2kmm}{article}{}
      \true{moreauthor}
      \true{morelabelname}
      \name{author}{1}{}{%
        {{hash=4d1e74bd65bc46cf3591cf53dbc4f37b}{%
           family={Sirunyan},
           familyi={S\bibinitperiod},
           given={A.\bibnamedelimi M.},
           giveni={A\bibinitperiod\bibinitdelim M\bibinitperiod}}}%
      }
      \list{publisher}{1}{%
        {American Physical Society}%
      }
      \strng{namehash}{87305cbf68bb77e1bf96b709977be142}
      \strng{fullhash}{87305cbf68bb77e1bf96b709977be142}
      \strng{bibnamehash}{87305cbf68bb77e1bf96b709977be142}
      \strng{authorbibnamehash}{87305cbf68bb77e1bf96b709977be142}
      \strng{authornamehash}{87305cbf68bb77e1bf96b709977be142}
      \strng{authorfullhash}{87305cbf68bb77e1bf96b709977be142}
      \field{sortinit}{S}
      \field{sortinithash}{322b1d5276f2f6c1bccdcd15920dbee6}
      \field{labelnamesource}{author}
      \field{labeltitlesource}{title}
      \field{issue}{11}
      \field{journaltitle}{Phys. Rev. D}
      \field{month}{12}
      \field{title}{Angular analysis of the decay $B^{+}\ensuremath{\rightarrow}{K}^{+}{\ensuremath{\mu}}^{+}{\ensuremath{\mu}}^{\ensuremath{-}}$ in proton-proton collisions at $\sqrt{s}$=8 TeV}
      \field{volume}{98}
      \field{year}{2018}
      \field{pages}{112011}
      \range{pages}{1}
      \verb{doi}
      \verb 10.1103/PhysRevD.98.112011
      \endverb
      \verb{urlraw}
      \verb https://link.aps.org/doi/10.1103/PhysRevD.98.112011
      \endverb
      \verb{url}
      \verb https://link.aps.org/doi/10.1103/PhysRevD.98.112011
      \endverb
    \endentry
    \entry{cms-b2kstmm}{article}{}
      \true{moreauthor}
      \true{morelabelname}
      \name{author}{1}{}{%
        {{hash=4d1e74bd65bc46cf3591cf53dbc4f37b}{%
           family={Sirunyan},
           familyi={S\bibinitperiod},
           given={A.\bibnamedelimi M.},
           giveni={A\bibinitperiod\bibinitdelim M\bibinitperiod}}}%
      }
      \strng{namehash}{87305cbf68bb77e1bf96b709977be142}
      \strng{fullhash}{87305cbf68bb77e1bf96b709977be142}
      \strng{bibnamehash}{87305cbf68bb77e1bf96b709977be142}
      \strng{authorbibnamehash}{87305cbf68bb77e1bf96b709977be142}
      \strng{authornamehash}{87305cbf68bb77e1bf96b709977be142}
      \strng{authorfullhash}{87305cbf68bb77e1bf96b709977be142}
      \field{sortinit}{S}
      \field{sortinithash}{322b1d5276f2f6c1bccdcd15920dbee6}
      \field{labelnamesource}{author}
      \field{labeltitlesource}{title}
      \field{issn}{0370-2693}
      \field{journaltitle}{Phys. Lett. B}
      \field{title}{Measurement of angular parameters from the decay $B^0\rightarrow K^{*0}\mu^+\mu^-$ in proton–proton collisions at $\sqrt{s}=$ 8 TeV}
      \field{volume}{781}
      \field{year}{2018}
      \field{pages}{517\bibrangedash 541}
      \range{pages}{25}
      \verb{doi}
      \verb https://doi.org/10.1016/j.physletb.2018.04.030
      \endverb
      \verb{urlraw}
      \verb http://www.sciencedirect.com/science/article/pii/S0370269318303149
      \endverb
      \verb{url}
      \verb http://www.sciencedirect.com/science/article/pii/S0370269318303149
      \endverb
    \endentry
    \entry{cms-chib}{article}{}
      \true{moreauthor}
      \true{morelabelname}
      \name{author}{1}{}{%
        {{hash=4d1e74bd65bc46cf3591cf53dbc4f37b}{%
           family={Sirunyan},
           familyi={S\bibinitperiod},
           given={A.\bibnamedelimi M.},
           giveni={A\bibinitperiod\bibinitdelim M\bibinitperiod}}}%
      }
      \list{publisher}{1}{%
        {American Physical Society}%
      }
      \strng{namehash}{87305cbf68bb77e1bf96b709977be142}
      \strng{fullhash}{87305cbf68bb77e1bf96b709977be142}
      \strng{bibnamehash}{87305cbf68bb77e1bf96b709977be142}
      \strng{authorbibnamehash}{87305cbf68bb77e1bf96b709977be142}
      \strng{authornamehash}{87305cbf68bb77e1bf96b709977be142}
      \strng{authorfullhash}{87305cbf68bb77e1bf96b709977be142}
      \field{sortinit}{S}
      \field{sortinithash}{322b1d5276f2f6c1bccdcd15920dbee6}
      \field{labelnamesource}{author}
      \field{labeltitlesource}{title}
      \field{issue}{9}
      \field{journaltitle}{Phys. Rev. Lett.}
      \field{month}{8}
      \field{title}{Observation of the ${\ensuremath{\chi}}_{b1}(3P)$ and ${\ensuremath{\chi}}_{b2}(3P)$ and Measurement of their Masses}
      \field{volume}{121}
      \field{year}{2018}
      \field{pages}{092002}
      \range{pages}{1}
      \verb{doi}
      \verb 10.1103/PhysRevLett.121.092002
      \endverb
      \verb{urlraw}
      \verb https://link.aps.org/doi/10.1103/PhysRevLett.121.092002
      \endverb
      \verb{url}
      \verb https://link.aps.org/doi/10.1103/PhysRevLett.121.092002
      \endverb
    \endentry
    \entry{cms-bc}{article}{}
      \true{moreauthor}
      \true{morelabelname}
      \name{author}{1}{}{%
        {{hash=4d1e74bd65bc46cf3591cf53dbc4f37b}{%
           family={Sirunyan},
           familyi={S\bibinitperiod},
           given={A.\bibnamedelimi M.},
           giveni={A\bibinitperiod\bibinitdelim M\bibinitperiod}}}%
      }
      \list{publisher}{1}{%
        {American Physical Society}%
      }
      \strng{namehash}{87305cbf68bb77e1bf96b709977be142}
      \strng{fullhash}{87305cbf68bb77e1bf96b709977be142}
      \strng{bibnamehash}{87305cbf68bb77e1bf96b709977be142}
      \strng{authorbibnamehash}{87305cbf68bb77e1bf96b709977be142}
      \strng{authornamehash}{87305cbf68bb77e1bf96b709977be142}
      \strng{authorfullhash}{87305cbf68bb77e1bf96b709977be142}
      \field{sortinit}{S}
      \field{sortinithash}{322b1d5276f2f6c1bccdcd15920dbee6}
      \field{labelnamesource}{author}
      \field{labeltitlesource}{title}
      \field{issue}{13}
      \field{journaltitle}{Phys. Rev. Lett.}
      \field{month}{4}
      \field{title}{Observation of Two Excited $B_c^{+}$ States and Measurement of the $B_c^{+}(2S)$ Mass in pp Collisions at $\sqrt{s}$=13 TeV}
      \field{volume}{122}
      \field{year}{2019}
      \field{pages}{132001}
      \range{pages}{1}
      \verb{doi}
      \verb 10.1103/PhysRevLett.122.132001
      \endverb
      \verb{urlraw}
      \verb https://link.aps.org/doi/10.1103/PhysRevLett.122.132001
      \endverb
      \verb{url}
      \verb https://link.aps.org/doi/10.1103/PhysRevLett.122.132001
      \endverb
    \endentry
    \entry{cms-x5568}{article}{}
      \true{moreauthor}
      \true{morelabelname}
      \name{author}{1}{}{%
        {{hash=4d1e74bd65bc46cf3591cf53dbc4f37b}{%
           family={Sirunyan},
           familyi={S\bibinitperiod},
           given={A.\bibnamedelimi M.},
           giveni={A\bibinitperiod\bibinitdelim M\bibinitperiod}}}%
      }
      \list{publisher}{1}{%
        {American Physical Society}%
      }
      \strng{namehash}{87305cbf68bb77e1bf96b709977be142}
      \strng{fullhash}{87305cbf68bb77e1bf96b709977be142}
      \strng{bibnamehash}{87305cbf68bb77e1bf96b709977be142}
      \strng{authorbibnamehash}{87305cbf68bb77e1bf96b709977be142}
      \strng{authornamehash}{87305cbf68bb77e1bf96b709977be142}
      \strng{authorfullhash}{87305cbf68bb77e1bf96b709977be142}
      \field{sortinit}{S}
      \field{sortinithash}{322b1d5276f2f6c1bccdcd15920dbee6}
      \field{labelnamesource}{author}
      \field{labeltitlesource}{title}
      \field{issue}{20}
      \field{journaltitle}{Phys. Rev. Lett.}
      \field{month}{5}
      \field{title}{Search for the $X(5568)$ State Decaying into $B_s^{0}{\ensuremath{\pi}}^{\ifmmode\pm\else\textpm\fi{}}$ in Proton-Proton Collisions at $\sqrt{s}$=8 TeV}
      \field{volume}{120}
      \field{year}{2018}
      \field{pages}{202005}
      \range{pages}{1}
      \verb{doi}
      \verb 10.1103/PhysRevLett.120.202005
      \endverb
      \verb{urlraw}
      \verb https://link.aps.org/doi/10.1103/PhysRevLett.120.202005
      \endverb
      \verb{url}
      \verb https://link.aps.org/doi/10.1103/PhysRevLett.120.202005
      \endverb
    \endentry
    \entry{cms-bs}{article}{}
      \true{moreauthor}
      \true{morelabelname}
      \name{author}{1}{}{%
        {{hash=4d1e74bd65bc46cf3591cf53dbc4f37b}{%
           family={Sirunyan},
           familyi={S\bibinitperiod},
           given={A.\bibnamedelimi M.},
           giveni={A\bibinitperiod\bibinitdelim M\bibinitperiod}}}%
      }
      \strng{namehash}{87305cbf68bb77e1bf96b709977be142}
      \strng{fullhash}{87305cbf68bb77e1bf96b709977be142}
      \strng{bibnamehash}{87305cbf68bb77e1bf96b709977be142}
      \strng{authorbibnamehash}{87305cbf68bb77e1bf96b709977be142}
      \strng{authornamehash}{87305cbf68bb77e1bf96b709977be142}
      \strng{authorfullhash}{87305cbf68bb77e1bf96b709977be142}
      \field{sortinit}{S}
      \field{sortinithash}{322b1d5276f2f6c1bccdcd15920dbee6}
      \field{labelnamesource}{author}
      \field{labeltitlesource}{title}
      \field{issn}{1434-6052}
      \field{journaltitle}{Eur. Phys. Jour. C}
      \field{month}{11}
      \field{number}{11}
      \field{title}{Studies of $B_{s2}^{*}(5840)^0$ and $B_{s1}(5830)^0$ mesons including the observation of the $B_{s2}^{*}(5840)^0\ensuremath{\rightarrow}{B}^0K_s^0$ decay in proton-proton collisions at $\sqrt{s}$=8 TeV}
      \field{volume}{78}
      \field{year}{2018}
      \field{pages}{939}
      \range{pages}{1}
      \verb{doi}
      \verb 10.1140/epjc/s10052-018-6390-z
      \endverb
      \verb{urlraw}
      \verb https://doi.org/10.1140/epjc/s10052-018-6390-z
      \endverb
      \verb{url}
      \verb https://doi.org/10.1140/epjc/s10052-018-6390-z
      \endverb
    \endentry
    \entry{pdg}{article}{}
      \true{moreauthor}
      \true{morelabelname}
      \name{author}{1}{}{%
        {{hash=f9ae2d288b948c9b9885e3d64f8b2d0a}{%
           family={Tanabashi},
           familyi={T\bibinitperiod},
           given={M.},
           giveni={M\bibinitperiod}}}%
      }
      \list{publisher}{1}{%
        {American Physical Society}%
      }
      \strng{namehash}{643c4d8f1b6d1cb6d7650b915907e13a}
      \strng{fullhash}{643c4d8f1b6d1cb6d7650b915907e13a}
      \strng{bibnamehash}{643c4d8f1b6d1cb6d7650b915907e13a}
      \strng{authorbibnamehash}{643c4d8f1b6d1cb6d7650b915907e13a}
      \strng{authornamehash}{643c4d8f1b6d1cb6d7650b915907e13a}
      \strng{authorfullhash}{643c4d8f1b6d1cb6d7650b915907e13a}
      \field{sortinit}{T}
      \field{sortinithash}{6f7aff9db9dcfeb7f95fd5bbd2f78df9}
      \field{labelnamesource}{author}
      \field{labeltitlesource}{title}
      \field{issue}{3}
      \field{journaltitle}{Phys. Rev. D}
      \field{month}{8}
      \field{title}{Review of Particle Physics}
      \field{volume}{98}
      \field{year}{2018}
      \field{pages}{030001}
      \range{pages}{1}
      \verb{doi}
      \verb 10.1103/PhysRevD.98.030001
      \endverb
      \verb{urlraw}
      \verb https://link.aps.org/doi/10.1103/PhysRevD.98.030001
      \endverb
      \verb{url}
      \verb https://link.aps.org/doi/10.1103/PhysRevD.98.030001
      \endverb
    \endentry
  \enddatalist
\endrefsection
\endinput

